{"count":337,"next":"https://ll.thespacedevs.com/2.0.0/launch/upcoming/?limit=10&offset=10","previous":null,"results":[{"id":"93f37c4a-f5d5-4c5d-b21a-a618c8540918","url":"https://ll.thespacedevs.com/2.0.0/launch/93f37c4a-f5d5-4c5d-b21a-a618c8540918/","launch_library_id":null,"slug":"falcon-9-block-5-starlink-group-11-22","name":"Falcon 9 Block 5 | Starlink Group 11-22","status":{"id":1,"name":"Go"},"net":"2025-06-04T23:40:30Z","window_end":"2025-06-05T02:19:00Z","window_start":"2025-06-04T23:28:00Z","inhold":false,"tbdtime":false,"tbddate":false,"probability":null,"holdreason":"","failreason":"","hashtag":null,"launch_service_provider":{"id":121,"url":"https://ll.thespacedevs.com/2.0.0/agencies/121/","name":"SpaceX","type":"Commercial"},"rocket":{"id":8625,"configuration":{"id":164,"launch_library_id":188,"url":"https://ll.thespacedevs.com/2.0.0/config/launcher/164/","name":"Falcon 9","family":"Falcon","full_name":"Falcon 9 Block 5","variant":"Block 5"}},"mission":{"id":7217,"launch_library_id":null,"name":"Starlink Group 11-22","description":"A batch of 27 satellites for the Starlink mega-constellation - SpaceX's project for space-based Internet communication system.","launch_designator":null,"type":"Communications","orbit":{"id":8,"name":"Low Earth Orbit","abbrev":"LEO"}},"pad":{"id":16,"url":"https://ll.thespacedevs.com/2.0.0/pad/16/","agency_id":null,"name":"Space Launch Complex 4E","info_url":null,"wiki_url":"https://en.wikipedia.org/wiki/Vandenberg_Space_Launch_Complex_4#SLC-4E","map_url":"https://www.google.com/maps?q=34.632,-120.611","latitude":"34.632","longitude":"-120.611","location":{"id":11,"url":"https://ll.thespacedevs.com/2.0.0/location/11/","name":"Vandenberg SFB, CA, USA","country_code":"USA","map_image":"https://thespacedevs-prod.nyc3.digitaloceanspaces.com/media/map_images/location_11_20200803142416.jpg","total_launch_count":810,"total_landing_count":26},"map_image":"https://thespacedevs-prod.nyc3.digitaloceanspaces.com/media/map_images/pad_16_20200803143532.jpg","total_launch_count":196},"webcast_live":false,"image":"https://thespacedevs-prod.nyc3.digitaloceanspaces.com/media/images/falcon2520925_image_20221009234147.png","infographic":null,"program":[{"id":25,"url":"https://ll.thespacedevs.com/2.0.0/program/25/","name":"Starlink","description":"Starlink is a satellite internet constellation operated by American aerospace company SpaceX","agencies":[{"id":121,"url":"https://ll.thespacedevs.com/2.0.0/agencies/121/","name":"SpaceX","type":"Commercial"}],"image_url":"https://thespacedevs-prod.nyc3.digitaloceanspaces.com/media/images/starlink_program_20231228154508.jpeg","start_date":"2018-02-22T14:17:00Z","end_date":null,"info_url":"https://starlink.com","wiki_url":"https://en.wikipedia.org/wiki/Starlink"}]},{"id":"b93d5dbe-f3c1-4845-8716-fbf43d1dfd66","url":"https://ll.thespacedevs.com/2.0.0/launch/b93d5dbe-f3c1-4845-8716-fbf43d1dfd66/","launch_library_id":null,"slug":"long-march-6a-g60-polar-group-tbd","name":"Long March 6A | G60 Polar Group TBD","status":{"id":1,"name":"Go"},"net":"2025-06-05T20:45:00Z","window_end":"2025-06-05T20:56:00Z","window_start":"2025-06-05T20:36:00Z","inhold":false,"tbdtime":true,"tbddate":false,"probability":null,"holdreason":"","failreason":"","hashtag":null,"launch_service_provider":{"id":88,"url":"https://ll.thespacedevs.com/2.0.0/agencies/88/","name":"China Aerospace Science and Technology Corporation","type":"Government"},"rocket":{"id":8629,"configuration":{"id":478,"launch_library_id":null,"url":"https://ll.thespacedevs.com/2.0.0/config/launcher/478/","name":"Long March 6A","family":"Long March","full_name":"Long March 6A","variant":""}},"mission":{"id":7221,"launch_library_id":null,"name":"G60 Polar Group TBD","description":"18 Low Earth Orbit communication satellites with Ku, Q and V band payloads for the G60 constellation operated by Shanghai Spacecom Satellite Technology (SSST) with funding backed by the Shanghai local government.\r\n\r\nInitial constellation will consist of 1296 satellites by 2027 with long term plans to expand it to 12000 satellites.","launch_designator":null,"type":"Communications","orbit":{"id":13,"name":"Polar Orbit","abbrev":"PO"}},"pad":{"id":200,"url":"https://ll.thespacedevs.com/2.0.0/pad/200/","agency_id":null,"name":"Launch Complex 9A","info_url":null,"wiki_url":null,"map_url":"https://www.google.com/maps?q=38.8583,111.5802","latitude":"38.8583","longitude":"111.5802","location":{"id":19,"url":"https://ll.thespacedevs.com/2.0.0/location/19/","name":"Taiyuan Satellite Launch Center, People's Republic of China","country_code":"CHN","map_image":"https://thespacedevs-prod.nyc3.digitaloceanspaces.com/media/map_images/location_19_20200803142421.jpg","total_launch_count":141,"total_landing_count":0},"map_image":"https://thespacedevs-prod.nyc3.digitaloceanspaces.com/media/map_images/pad_launch_complex_9a_20220330003717.jpg","total_launch_count":13},"webcast_live":false,"image":"https://thespacedevs-prod.nyc3.digitaloceanspaces.com/media/images/long_march_6a_image_20221109174525.png","infographic":null,"program":[]},{"id":"b3f7dd08-1e48-498c-8fcb-193b8d54ed6b","url":"https://ll.thespacedevs.com/2.0.0/launch/b3f7dd08-1e48-498c-8fcb-193b8d54ed6b/","launch_library_id":null,"slug":"falcon-9-block-5-sirius-sxm-10","name":"Falcon 9 Block 5 | Sirius SXM-10","status":{"id":2,"name":"TBD"},"net":"2025-06-07T03:19:00Z","window_end":"2025-06-07T07:48:00Z","window_start":"2025-06-07T03:19:00Z","inhold":false,"tbdtime":false,"tbddate":false,"probability":85,"holdreason":"","failreason":"","hashtag":null,"launch_service_provider":{"id":121,"url":"https://ll.thespacedevs.com/2.0.0/agencies/121/","name":"SpaceX","type":"Commercial"},"rocket":{"id":8533,"configuration":{"id":164,"launch_library_id":188,"url":"https://ll.thespacedevs.com/2.0.0/config/launcher/164/","name":"Falcon 9","family":"Falcon","full_name":"Falcon 9 Block 5","variant":"Block 5"}},"mission":{"id":7123,"launch_library_id":null,"name":"Sirius SXM-10","description":"SXM-10 is the 11th high-powered, digital, audio radio satellite built by Maxar (SSL) for SiriusXM. The SXM-10 satellite will be based on Maxar’s proven 1300-class platform and built at the company’s manufacturing facility in Palo Alto, California. SXM-10 has a large, mesh, unfurlable reflector almost 10 meters in diameter that allows SiriusXM programming to reach its radios, including those in moving vehicles.","launch_designator":null,"type":"Communications","orbit":{"id":2,"name":"Geostationary Transfer Orbit","abbrev":"GTO"}},"pad":{"id":80,"url":"https://ll.thespacedevs.com/2.0.0/pad/80/","agency_id":121,"name":"Space Launch Complex 40","info_url":null,"wiki_url":"https://en.wikipedia.org/wiki/Cape_Canaveral_Air_Force_Station_Space_Launch_Complex_40","map_url":"https://www.google.com/maps?q=28.56194122,-80.57735736","latitude":"28.56194122","longitude":"-80.57735736","location":{"id":12,"url":"https://ll.thespacedevs.com/2.0.0/location/12/","name":"Cape Canaveral SFS, FL, USA","country_code":"USA","map_image":"https://thespacedevs-prod.nyc3.digitaloceanspaces.com/media/map_images/location_12_20200803142519.jpg","total_launch_count":1027,"total_landing_count":64},"map_image":"https://thespacedevs-prod.nyc3.digitaloceanspaces.com/media/map_images/pad_80_20200803143323.jpg","total_launch_count":311},"webcast_live":false,"image":"https://thespacedevs-prod.nyc3.digitaloceanspaces.com/media/images/falcon_9_liftof_image_20241206131356.jpg","infographic":null,"program":[]},{"id":"fb36a6be-e8e1-4bb9-9833-7cf98aa91d78","url":"https://ll.thespacedevs.com/2.0.0/launch/fb36a6be-e8e1-4bb9-9833-7cf98aa91d78/","launch_library_id":null,"slug":"falcon-9-block-5-starlink-group-15-8","name":"Falcon 9 Block 5 | Starlink Group 15-8","status":{"id":2,"name":"TBD"},"net":"2025-06-08T13:34:00Z","window_end":"2025-06-08T17:34:00Z","window_start":"2025-06-08T13:34:00Z","inhold":false,"tbdtime":true,"tbddate":false,"probability":null,"holdreason":"","failreason":"","hashtag":null,"launch_service_provider":{"id":121,"url":"https://ll.thespacedevs.com/2.0.0/agencies/121/","name":"SpaceX","type":"Commercial"},"rocket":{"id":8626,"configuration":{"id":164,"launch_library_id":188,"url":"https://ll.thespacedevs.com/2.0.0/config/launcher/164/","name":"Falcon 9","family":"Falcon","full_name":"Falcon 9 Block 5","variant":"Block 5"}},"mission":{"id":7218,"launch_library_id":null,"name":"Starlink Group 15-8","description":"A batch of satellites for the Starlink mega-constellation - SpaceX's project for space-based Internet communication system.","launch_designator":null,"type":"Communications","orbit":{"id":8,"name":"Low Earth Orbit","abbrev":"LEO"}},"pad":{"id":16,"url":"https://ll.thespacedevs.com/2.0.0/pad/16/","agency_id":null,"name":"Space Launch Complex 4E","info_url":null,"wiki_url":"https://en.wikipedia.org/wiki/Vandenberg_Space_Launch_Complex_4#SLC-4E","map_url":"https://www.google.com/maps?q=34.632,-120.611","latitude":"34.632","longitude":"-120.611","location":{"id":11,"url":"https://ll.thespacedevs.com/2.0.0/location/11/","name":"Vandenberg SFB, CA, USA","country_code":"USA","map_image":"https://thespacedevs-prod.nyc3.digitaloceanspaces.com/media/map_images/location_11_20200803142416.jpg","total_launch_count":810,"total_landing_count":26},"map_image":"https://thespacedevs-prod.nyc3.digitaloceanspaces.com/media/map_images/pad_16_20200803143532.jpg","total_launch_count":196},"webcast_live":false,"image":"https://thespacedevs-prod.nyc3.digitaloceanspaces.com/media/images/falcon2520925_image_20221009234147.png","infographic":null,"program":[{"id":25,"url":"https://ll.thespacedevs.com/2.0.0/program/25/","name":"Starlink","description":"Starlink is a satellite internet constellation operated by American aerospace company SpaceX","agencies":[{"id":121,"url":"https://ll.thespacedevs.com/2.0.0/agencies/121/","name":"SpaceX","type":"Commercial"}],"image_url":"https://thespacedevs-prod.nyc3.digitaloceanspaces.com/media/images/starlink_program_20231228154508.jpeg","start_date":"2018-02-22T14:17:00Z","end_date":null,"info_url":"https://starlink.com","wiki_url":"https://en.wikipedia.org/wiki/Starlink"}]},{"id":"0805af04-c2ea-4750-9eb4-f24f89eeb5d6","url":"https://ll.thespacedevs.com/2.0.0/launch/0805af04-c2ea-4750-9eb4-f24f89eeb5d6/","launch_library_id":null,"slug":"falcon-9-block-5-axiom-space-mission-4","name":"Falcon 9 Block 5 | Axiom Space Mission 4","status":{"id":1,"name":"Go"},"net":"2025-06-10T12:22:00Z","window_end":"2025-06-10T12:22:00Z","window_start":"2025-06-10T12:22:00Z","inhold":false,"tbdtime":false,"tbddate":false,"probability":null,"holdreason":"","failreason":"","hashtag":null,"launch_service_provider":{"id":121,"url":"https://ll.thespacedevs.com/2.0.0/agencies/121/","name":"SpaceX","type":"Commercial"},"rocket":{"id":2952,"configuration":{"id":164,"launch_library_id":188,"url":"https://ll.thespacedevs.com/2.0.0/config/launcher/164/","name":"Falcon 9","family":"Falcon","full_name":"Falcon 9 Block 5","variant":"Block 5"}},"mission":{"id":1369,"launch_library_id":null,"name":"Axiom Space Mission 4","description":"This is a Crew Dragon flight for a private company Axiom Space. The mission will carry a professionally trained commander alongside three private astronauts to and from the International Space Station. This crew will stay aboard space station for  at least eight days.","launch_designator":null,"type":"Tourism","orbit":{"id":8,"name":"Low Earth Orbit","abbrev":"LEO"}},"pad":{"id":87,"url":"https://ll.thespacedevs.com/2.0.0/pad/87/","agency_id":121,"name":"Launch Complex 39A","info_url":null,"wiki_url":"https://en.wikipedia.org/wiki/Kennedy_Space_Center_Launch_Complex_39#Launch_Pad_39A","map_url":"https://www.google.com/maps?q=28.60822681,-80.60428186","latitude":"28.60822681","longitude":"-80.60428186","location":{"id":27,"url":"https://ll.thespacedevs.com/2.0.0/location/27/","name":"Kennedy Space Center, FL, USA","country_code":"USA","map_image":"https://thespacedevs-prod.nyc3.digitaloceanspaces.com/media/map_images/location_27_20200803142447.jpg","total_launch_count":266,"total_landing_count":0},"map_image":"https://thespacedevs-prod.nyc3.digitaloceanspaces.com/media/map_images/pad_87_20200803143537.jpg","total_launch_count":208},"webcast_live":false,"image":"https://thespacedevs-prod.nyc3.digitaloceanspaces.com/media/images/falcon2520925_image_20210525170218.jpeg","infographic":null,"program":[{"id":32,"url":"https://ll.thespacedevs.com/2.0.0/program/32/","name":"Axiom Private Spaceflight","description":"Axiom Space provides human spaceflight missions to the International Space Station. \r\nThe company sent its first commercial astronauts into orbit in 2022. It also plans human spaceflight for government-funded and commercial astronauts engaging in in-space research, in-space manufacturing, and space exploration.","agencies":[{"id":1022,"url":"https://ll.thespacedevs.com/2.0.0/agencies/1022/","name":"Axiom Space","type":"Private"}],"image_url":"https://thespacedevs-prod.nyc3.digitaloceanspaces.com/media/images/axiom2520priva_program_20231231100427.jpeg","start_date":"2022-04-08T00:00:00Z","end_date":null,"info_url":"https://www.axiomspace.com/missions/","wiki_url":"https://en.wikipedia.org/wiki/Axiom_Space#Missions"}]},{"id":"e084e9ae-5d37-4c4c-b6a9-1bc6047086f3","url":"https://ll.thespacedevs.com/2.0.0/launch/e084e9ae-5d37-4c4c-b6a9-1bc6047086f3/","launch_library_id":null,"slug":"falcon-9-block-5-starlink-group-12-24","name":"Falcon 9 Block 5 | Starlink Group 12-24","status":{"id":2,"name":"TBD"},"net":"2025-06-10T13:03:00Z","window_end":"2025-06-10T17:34:00Z","window_start":"2025-06-10T13:03:00Z","inhold":false,"tbdtime":true,"tbddate":false,"probability":null,"holdreason":"","failreason":"","hashtag":null,"launch_service_provider":{"id":121,"url":"https://ll.thespacedevs.com/2.0.0/agencies/121/","name":"SpaceX","type":"Commercial"},"rocket":{"id":8628,"configuration":{"id":164,"launch_library_id":188,"url":"https://ll.thespacedevs.com/2.0.0/config/launcher/164/","name":"Falcon 9","family":"Falcon","full_name":"Falcon 9 Block 5","variant":"Block 5"}},"mission":{"id":7220,"launch_library_id":null,"name":"Starlink Group 12-24","description":"A batch of satellites for the Starlink mega-constellation - SpaceX's project for space-based Internet communication system.","launch_designator":null,"type":"Communications","orbit":{"id":8,"name":"Low Earth Orbit","abbrev":"LEO"}},"pad":{"id":80,"url":"https://ll.thespacedevs.com/2.0.0/pad/80/","agency_id":121,"name":"Space Launch Complex 40","info_url":null,"wiki_url":"https://en.wikipedia.org/wiki/Cape_Canaveral_Air_Force_Station_Space_Launch_Complex_40","map_url":"https://www.google.com/maps?q=28.56194122,-80.57735736","latitude":"28.56194122","longitude":"-80.57735736","location":{"id":12,"url":"https://ll.thespacedevs.com/2.0.0/location/12/","name":"Cape Canaveral SFS, FL, USA","country_code":"USA","map_image":"https://thespacedevs-prod.nyc3.digitaloceanspaces.com/media/map_images/location_12_20200803142519.jpg","total_launch_count":1027,"total_landing_count":64},"map_image":"https://thespacedevs-prod.nyc3.digitaloceanspaces.com/media/map_images/pad_80_20200803143323.jpg","total_launch_count":311},"webcast_live":false,"image":"https://thespacedevs-prod.nyc3.digitaloceanspaces.com/media/images/falcon2520925_image_20221009234147.png","infographic":null,"program":[{"id":25,"url":"https://ll.thespacedevs.com/2.0.0/program/25/","name":"Starlink","description":"Starlink is a satellite internet constellation operated by American aerospace company SpaceX","agencies":[{"id":121,"url":"https://ll.thespacedevs.com/2.0.0/agencies/121/","name":"SpaceX","type":"Commercial"}],"image_url":"https://thespacedevs-prod.nyc3.digitaloceanspaces.com/media/images/starlink_program_20231228154508.jpeg","start_date":"2018-02-22T14:17:00Z","end_date":null,"info_url":"https://starlink.com","wiki_url":"https://en.wikipedia.org/wiki/Starlink"}]},{"id":"0a4ae6ce-07ef-4e48-9b4d-0bf4e1182134","url":"https://ll.thespacedevs.com/2.0.0/launch/0a4ae6ce-07ef-4e48-9b4d-0bf4e1182134/","launch_library_id":null,"slug":"electron-the-mountain-god-guards-iqps-launch-3","name":"Electron | The Mountain God Guards (iQPS Launch 3)","status":{"id":1,"name":"Go"},"net":"2025-06-10T15:45:00Z","window_end":"2025-06-10T16:35:00Z","window_start":"2025-06-10T15:45:00Z","inhold":false,"tbdtime":false,"tbddate":false,"probability":null,"holdreason":"","failreason":"","hashtag":null,"launch_service_provider":{"id":147,"url":"https://ll.thespacedevs.com/2.0.0/agencies/147/","name":"Rocket Lab","type":"Commercial"},"rocket":{"id":8520,"configuration":{"id":26,"launch_library_id":148,"url":"https://ll.thespacedevs.com/2.0.0/config/launcher/26/","name":"Electron","family":"","full_name":"Electron","variant":""}},"mission":{"id":7110,"launch_library_id":null,"name":"The Mountain God Guards (iQPS Launch 3)","description":"Synthetic aperture radar Earth observation satellite for Japanese Earth imaging company iQPS.","launch_designator":null,"type":"Earth Science","orbit":{"id":8,"name":"Low Earth Orbit","abbrev":"LEO"}},"pad":{"id":65,"url":"https://ll.thespacedevs.com/2.0.0/pad/65/","agency_id":147,"name":"Rocket Lab Launch Complex 1A","info_url":null,"wiki_url":"https://en.wikipedia.org/wiki/Rocket_Lab_Launch_Complex_1","map_url":"https://www.google.com/maps?q=-39.262833,177.864469","latitude":"-39.262833","longitude":"177.864469","location":{"id":10,"url":"https://ll.thespacedevs.com/2.0.0/location/10/","name":"Rocket Lab Launch Complex 1, Mahia Peninsula, New Zealand","country_code":"NZL","map_image":"https://thespacedevs-prod.nyc3.digitaloceanspaces.com/media/map_images/location_10_20200803142509.jpg","total_launch_count":59,"total_landing_count":17},"map_image":"https://thespacedevs-prod.nyc3.digitaloceanspaces.com/media/map_images/pad_65_20200803143549.jpg","total_launch_count":30},"webcast_live":false,"image":"https://thespacedevs-prod.nyc3.digitaloceanspaces.com/media/images/electron_image_20190705175640.jpeg","infographic":null,"program":[]},{"id":"20f57212-6c6c-45c9-ba80-b4f90a470c7c","url":"https://ll.thespacedevs.com/2.0.0/launch/20f57212-6c6c-45c9-ba80-b4f90a470c7c/","launch_library_id":null,"slug":"falcon-9-block-5-starlink-group-15-6","name":"Falcon 9 Block 5 | Starlink Group 15-6","status":{"id":2,"name":"TBD"},"net":"2025-06-13T01:46:00Z","window_end":"2025-06-13T06:14:00Z","window_start":"2025-06-13T01:46:00Z","inhold":false,"tbdtime":true,"tbddate":false,"probability":null,"holdreason":"","failreason":"","hashtag":null,"launch_service_provider":{"id":121,"url":"https://ll.thespacedevs.com/2.0.0/agencies/121/","name":"SpaceX","type":"Commercial"},"rocket":{"id":8627,"configuration":{"id":164,"launch_library_id":188,"url":"https://ll.thespacedevs.com/2.0.0/config/launcher/164/","name":"Falcon 9","family":"Falcon","full_name":"Falcon 9 Block 5","variant":"Block 5"}},"mission":{"id":7219,"launch_library_id":null,"name":"Starlink Group 15-6","description":"A batch of satellites for the Starlink mega-constellation - SpaceX's project for space-based Internet communication system.","launch_designator":null,"type":"Communications","orbit":{"id":8,"name":"Low Earth Orbit","abbrev":"LEO"}},"pad":{"id":16,"url":"https://ll.thespacedevs.com/2.0.0/pad/16/","agency_id":null,"name":"Space Launch Complex 4E","info_url":null,"wiki_url":"https://en.wikipedia.org/wiki/Vandenberg_Space_Launch_Complex_4#SLC-4E","map_url":"https://www.google.com/maps?q=34.632,-120.611","latitude":"34.632","longitude":"-120.611","location":{"id":11,"url":"https://ll.thespacedevs.com/2.0.0/location/11/","name":"Vandenberg SFB, CA, USA","country_code":"USA","map_image":"https://thespacedevs-prod.nyc3.digitaloceanspaces.com/media/map_images/location_11_20200803142416.jpg","total_launch_count":810,"total_landing_count":26},"map_image":"https://thespacedevs-prod.nyc3.digitaloceanspaces.com/media/map_images/pad_16_20200803143532.jpg","total_launch_count":196},"webcast_live":false,"image":"https://thespacedevs-prod.nyc3.digitaloceanspaces.com/media/images/falcon2520925_image_20221009234147.png","infographic":null,"program":[{"id":25,"url":"https://ll.thespacedevs.com/2.0.0/program/25/","name":"Starlink","description":"Starlink is a satellite internet constellation operated by American aerospace company SpaceX","agencies":[{"id":121,"url":"https://ll.thespacedevs.com/2.0.0/agencies/121/","name":"SpaceX","type":"Commercial"}],"image_url":"https://thespacedevs-prod.nyc3.digitaloceanspaces.com/media/images/starlink_program_20231228154508.jpeg","start_date":"2018-02-22T14:17:00Z","end_date":null,"info_url":"https://starlink.com","wiki_url":"https://en.wikipedia.org/wiki/Starlink"}]},{"id":"9d90b9bc-9c62-4618-8514-6f835b4a2030","url":"https://ll.thespacedevs.com/2.0.0/launch/9d90b9bc-9c62-4618-8514-6f835b4a2030/","launch_library_id":null,"slug":"atlas-v-551-project-kuiper-ka-02","name":"Atlas V 551 | Project Kuiper (KA-02)","status":{"id":1,"name":"Go"},"net":"2025-06-13T18:29:00Z","window_end":"2025-06-13T18:59:00Z","window_start":"2025-06-13T18:29:00Z","inhold":false,"tbdtime":false,"tbddate":false,"probability":null,"holdreason":"","failreason":"","hashtag":null,"launch_service_provider":{"id":124,"url":"https://ll.thespacedevs.com/2.0.0/agencies/124/","name":"United Launch Alliance","type":"Commercial"},"rocket":{"id":143,"configuration":{"id":27,"launch_library_id":37,"url":"https://ll.thespacedevs.com/2.0.0/config/launcher/27/","name":"Atlas V 551","family":"Atlas","full_name":"Atlas V 551","variant":"551"}},"mission":{"id":5994,"launch_library_id":null,"name":"Project Kuiper (KA-02)","description":"Project Kuiper is a mega constellation of satellites in Low Earth Orbit that will offer broadband internet access, this constellation will be managed by Kuiper Systems LLC, a subsidiary of Amazon. This constellation is planned to be composed of 3,276 satellites. The satellites are projected to be placed in 98 orbital planes in three orbital layers, one at 590 km, 610 km and 630 km altitude.","launch_designator":null,"type":"Communications","orbit":{"id":8,"name":"Low Earth Orbit","abbrev":"LEO"}},"pad":{"id":29,"url":"https://ll.thespacedevs.com/2.0.0/pad/29/","agency_id":null,"name":"Space Launch Complex 41","info_url":null,"wiki_url":"https://en.wikipedia.org/wiki/Cape_Canaveral_Air_Force_Station_Space_Launch_Complex_41","map_url":"https://www.google.com/maps?q=28.58341025,-80.58303644","latitude":"28.58341025","longitude":"-80.58303644","location":{"id":12,"url":"https://ll.thespacedevs.com/2.0.0/location/12/","name":"Cape Canaveral SFS, FL, USA","country_code":"USA","map_image":"https://thespacedevs-prod.nyc3.digitaloceanspaces.com/media/map_images/location_12_20200803142519.jpg","total_launch_count":1027,"total_landing_count":64},"map_image":"https://thespacedevs-prod.nyc3.digitaloceanspaces.com/media/map_images/pad_29_20200803143528.jpg","total_launch_count":115},"webcast_live":false,"image":"https://thespacedevs-prod.nyc3.digitaloceanspaces.com/media/images/atlas2520v2520551_image_20190224012316.jpeg","infographic":null,"program":[{"id":27,"url":"https://ll.thespacedevs.com/2.0.0/program/27/","name":"Project Kuiper","description":"Amazon's Kuiper Project is a satellite internet initiative aimed at providing high-speed, low-latency broadband connectivity to underserved and remote areas globally. The project involves deploying a constellation of low Earth orbit (LEO) satellites to create a satellite internet network capable of delivering reliable internet access.","agencies":[{"id":1058,"url":"https://ll.thespacedevs.com/2.0.0/agencies/1058/","name":"Kuiper Systems LLC","type":"Private"}],"image_url":"https://thespacedevs-prod.nyc3.digitaloceanspaces.com/media/images/project2520kui_program_20231228165031.jpeg","start_date":"2023-10-16T18:06:00Z","end_date":null,"info_url":"https://en.wikipedia.org/wiki/Kuiper_Systems","wiki_url":"http://aboutamazon.com/what-we-do/devices-services/project-kuiper"}]},{"id":"0d3c2ff0-3b31-4066-8b33-5759b6866c39","url":"https://ll.thespacedevs.com/2.0.0/launch/0d3c2ff0-3b31-4066-8b33-5759b6866c39/","launch_library_id":null,"slug":"falcon-9-block-5-transporter-14-dedicated-sso-ride","name":"Falcon 9 Block 5 | Transporter 14 (Dedicated SSO Rideshare)","status":{"id":2,"name":"TBD"},"net":"2025-06-21T00:00:00Z","window_end":"2025-06-21T00:00:00Z","window_start":"2025-06-21T00:00:00Z","inhold":false,"tbdtime":true,"tbddate":false,"probability":null,"holdreason":"","failreason":"","hashtag":null,"launch_service_provider":{"id":121,"url":"https://ll.thespacedevs.com/2.0.0/agencies/121/","name":"SpaceX","type":"Commercial"},"rocket":{"id":8183,"configuration":{"id":164,"launch_library_id":188,"url":"https://ll.thespacedevs.com/2.0.0/config/launcher/164/","name":"Falcon 9","family":"Falcon","full_name":"Falcon 9 Block 5","variant":"Block 5"}},"mission":{"id":6750,"launch_library_id":null,"name":"Transporter 14 (Dedicated SSO Rideshare)","description":"Dedicated rideshare flight to a sun-synchronous orbit with dozens of small microsatellites and nanosatellites for commercial and government customers.","launch_designator":null,"type":"Dedicated Rideshare","orbit":{"id":17,"name":"Sun-Synchronous Orbit","abbrev":"SSO"}},"pad":{"id":16,"url":"https://ll.thespacedevs.com/2.0.0/pad/16/","agency_id":null,"name":"Space Launch Complex 4E","info_url":null,"wiki_url":"https://en.wikipedia.org/wiki/Vandenberg_Space_Launch_Complex_4#SLC-4E","map_url":"https://www.google.com/maps?q=34.632,-120.611","latitude":"34.632","longitude":"-120.611","location":{"id":11,"url":"https://ll.thespacedevs.com/2.0.0/location/11/","name":"Vandenberg SFB, CA, USA","country_code":"USA","map_image":"https://thespacedevs-prod.nyc3.digitaloceanspaces.com/media/map_images/location_11_20200803142416.jpg","total_launch_count":810,"total_landing_count":26},"map_image":"https://thespacedevs-prod.nyc3.digitaloceanspaces.com/media/map_images/pad_16_20200803143532.jpg","total_launch_count":196},"webcast_live":false,"image":"https://thespacedevs-prod.nyc3.digitaloceanspaces.com/media/images/falcon_9_image_20230807133459.jpeg","infographic":null,"program":[]}]}